<!-- Generated by IcoMoon.io -->
<svg version="1.1" xmlns="http://www.w3.org/2000/svg" width="32" height="32" viewBox="0 0 32 32">
<title>admin-modify</title>
<path fill="#758290" d="M14.831 29.639c0-3.388 1.408-4.239 1.408-4.239h1.406c0 0 1.406 0.759 1.406 4.239h-4.22zM15.535 22.586v-0.704h2.812v1.408l-0.702 0.704h-1.406l-0.704-0.704v-0.704zM30.807 27.836c-0.614 2.012-2.464 3.486-4.678 3.486-2.714 0-4.911-2.199-4.911-4.913 0-1.715 0.879-3.219 2.21-4.1-1.295-0.629-2.4-1.043-2.97-1.129 0 0-0.685-0.149-0.704-0.704v-1.408c0 0 2.351-2.108 2.814-4.941 1.259 0 1.961-3.183 0.704-4.239-0.316-1.5 1.591-7.757-6.332-7.757-7.921 0-6.016 6.795-6.349 7.757-1.259 1.056-0.555 4.239 0.704 4.239 0.463 2.814 2.831 4.924 2.831 4.924v1.406c0 0.501-0.704 0.704-0.704 0.704-2.108 0.371-11.29 4.943-11.29 9.143v1.425h29.615v-1.425c0-0.817-0.358-1.651-0.941-2.468z"></path>
<path fill="#758290" d="M23.703 27.779c-0.064 0.062-0.102 0.151-0.102 0.247v0.702c0 0.194 0.158 0.352 0.352 0.352h0.7c0.098 0 0.186-0.041 0.25-0.102l3.26-3.262-1.197-1.199-3.262 3.262z"></path>
<path fill="#758290" d="M29.113 24.269l-0.702-0.702c-0.064-0.064-0.151-0.102-0.25-0.102-0.096 0-0.183 0.038-0.247 0.102l-0.452 0.454 1.197 1.197 0.454-0.452c0.062-0.064 0.102-0.151 0.102-0.25 0-0.096-0.041-0.183-0.102-0.247z"></path>
</svg>
