<!-- Generated by IcoMoon.io -->
<svg version="1.1" xmlns="http://www.w3.org/2000/svg" width="32" height="32" viewBox="0 0 32 32">
<title>admin-add</title>
<path fill="#758290" d="M12.697 29.639c0-3.388 1.408-4.239 1.408-4.239h1.406c0 0 1.408 0.759 1.408 4.239h-4.222zM13.401 22.586v-0.704h2.812v1.408l-0.702 0.704h-1.406l-0.704-0.704v-0.704zM28.674 27.836c-0.614 2.012-2.464 3.486-4.676 3.486-2.716 0-4.913-2.199-4.913-4.913 0-1.715 0.879-3.219 2.212-4.1-1.297-0.629-2.402-1.043-2.972-1.129 0 0-0.685-0.149-0.702-0.704v-1.408c0 0 2.349-2.108 2.812-4.941 1.259 0 1.963-3.183 0.704-4.239-0.314-1.5 1.591-7.757-6.332-7.757-7.921 0-6.014 6.795-6.347 7.757-1.259 1.056-0.557 4.239 0.702 4.239 0.465 2.814 2.833 4.924 2.833 4.924v1.406c0 0.501-0.704 0.704-0.704 0.704-2.11 0.371-11.292 4.943-11.292 9.143v1.425h29.617v-1.425c0-0.817-0.361-1.651-0.943-2.468z"></path>
<path fill="#758290" d="M25.98 26.905h-1.487v1.487c0 0.273-0.224 0.495-0.497 0.495s-0.495-0.222-0.495-0.495v-1.487h-1.487c-0.273 0-0.497-0.222-0.497-0.495 0-0.275 0.224-0.497 0.497-0.497h1.487v-1.487c0-0.271 0.222-0.495 0.495-0.495s0.497 0.222 0.497 0.495v1.489h1.487c0.271 0 0.495 0.222 0.495 0.495s-0.224 0.495-0.495 0.495z"></path>
</svg>
