<!-- Generated by IcoMoon.io -->
<svg version="1.1" xmlns="http://www.w3.org/2000/svg" width="32" height="32" viewBox="0 0 32 32">
<title>app-detail</title>
<path fill="#758290" d="M12.648 14.933h-8.229c-1.28 0-2.286-1.051-2.286-2.286v-8.229c0-1.234 1.051-2.286 2.286-2.286h8.229c1.28 0 2.286 1.051 2.286 2.286v8.229c0 1.234-1.051 2.286-2.286 2.286zM14.933 29.714v-8.229c0-1.28-1.051-2.286-2.286-2.286h-8.229c-1.28 0-2.286 1.051-2.286 2.286v8.229c0 1.28 1.051 2.286 2.286 2.286h8.229c1.234 0 2.286-1.051 2.286-2.286zM29.867 29.714v-8.229c0-1.28-1.051-2.286-2.286-2.286h-8.229c-1.28 0-2.286 1.051-2.286 2.286v8.229c0 1.28 1.051 2.286 2.286 2.286h8.229c1.28 0 2.286-1.051 2.286-2.286zM31.408 8.214l-5.512-5.497c-0.78-0.778-2-0.778-2.781 0l-5.463 5.497c-0.78 0.778-0.78 1.994 0 2.773l5.512 5.497c0.78 0.778 2 0.778 2.781 0l5.512-5.497c0.732-0.778 0.732-1.994-0.049-2.773z"></path>
</svg>
