<!-- Generated by IcoMoon.io -->
<svg version="1.1" xmlns="http://www.w3.org/2000/svg" width="32" height="32" viewBox="0 0 32 32">
<title>audit-content</title>
<path fill="#758290" d="M32 22.613l-2.773-17.707c-0.213-1.493-1.707-2.773-3.2-2.773h-17.92c-1.493 0-2.987 1.28-3.2 2.773l-2.773 17.707c-0.213 0.64 0 1.92 0.213 2.56l1.92 4.267c0.64 1.493 2.347 2.56 3.84 2.56h17.92c1.493 0 3.2-1.067 3.84-2.56l1.92-4.48c0.213-0.64 0.213-1.707 0.213-2.347zM27.307 21.547h-3.84c-0.427 0-0.853 0.213-1.067 0.64l-1.067 1.707c-0.213 0.427-0.64 0.64-1.067 0.64h-5.76c-0.427 0-0.853-0.213-1.067-0.64l-1.067-1.92c-0.213-0.427-0.64-0.64-1.067-0.64h-4.267c-0.853 0-1.28-0.64-1.28-1.28l1.707-14.507c0.213-0.853 0.853-1.28 1.707-1.28h16.213c0.853 0 1.493 0.64 1.493 1.28l1.707 14.507c0 0.853-0.427 1.493-1.28 1.493z"></path>
<path fill="#758290" d="M14.933 9.6h4.267c0.64 0 1.067-0.427 1.067-1.067s-0.427-1.067-1.067-1.067h-4.267c-0.64 0-1.067 0.427-1.067 1.067s0.427 1.067 1.067 1.067z"></path>
<path fill="#758290" d="M12.8 13.867h8.533c0.64 0 1.067-0.427 1.067-1.067s-0.427-1.067-1.067-1.067h-8.533c-0.64 0-1.067 0.427-1.067 1.067s0.427 1.067 1.067 1.067z"></path>
<path fill="#758290" d="M23.467 16h-12.8c-0.64 0-1.067 0.427-1.067 1.067s0.427 1.067 1.067 1.067h12.8c0.64 0 1.067-0.427 1.067-1.067s-0.427-1.067-1.067-1.067z"></path>
</svg>
