<!-- Generated by IcoMoon.io -->
<svg version="1.1" xmlns="http://www.w3.org/2000/svg" width="32" height="32" viewBox="0 0 32 32">
<title>bus</title>
<path fill="#758290" d="M29.309 2.133h-26.623c-0.306 0-0.553 0.242-0.553 0.537v25.832c0 0.297 0.249 0.537 0.553 0.537h0.278c0 1.635 1.366 2.96 3.049 2.96 1.686 0 3.052-1.327 3.052-2.96h13.868c0 1.635 1.366 2.96 3.052 2.96 1.684 0 3.052-1.327 3.052-2.96h0.276c0.306 0 0.555-0.241 0.555-0.537v-25.831c0-0.297-0.249-0.539-0.557-0.539zM5.183 5.632c0-0.297 0.249-0.539 0.553-0.539h20.524c0.306 0 0.553 0.242 0.553 0.539v10.493h-21.63v-10.493zM7.92 25.006c-1.666 0-3.015-1.325-3.015-2.96 0-1.633 1.349-2.958 3.015-2.958 1.664 0 3.013 1.327 3.013 2.958 0 1.635-1.349 2.96-3.013 2.96zM21.065 22.044c0-1.633 1.349-2.958 3.013-2.958s3.013 1.327 3.013 2.958c0 1.637-1.349 2.96-3.013 2.96s-3.013-1.323-3.013-2.96z"></path>
</svg>
