<!-- Generated by IcoMoon.io -->
<svg version="1.1" xmlns="http://www.w3.org/2000/svg" width="32" height="32" viewBox="0 0 32 32">
<title>busline-modify</title>
<path fill="#758290" d="M27.278 20.475l-0.576 0.574-1.517-1.519 0.574-0.574c0.081-0.081 0.192-0.13 0.316-0.13s0.235 0.049 0.314 0.13l0.89 0.89c0.081 0.081 0.13 0.19 0.13 0.314s-0.049 0.235-0.13 0.316zM21.943 25.81c-0.083 0.081-0.192 0.132-0.316 0.132h-0.89c-0.245 0-0.444-0.201-0.444-0.446v-0.89c0-0.124 0.049-0.235 0.128-0.314l4.134-4.134 1.519 1.519-4.132 4.132zM26.48 17.121v-6.074c0-3.701-3.076-6.711-6.861-6.711s-6.863 3.010-6.863 6.711v8.866c0 1.188-1.001 2.157-2.231 2.157s-2.231-0.969-2.231-2.157v-8.066h3.663l-5.978-9.715-5.98 9.715h3.663v8.066c0 3.701 3.078 6.711 6.863 6.711s6.863-3.010 6.863-6.711v-8.866c0-1.188 1.001-2.155 2.231-2.155 1.229 0 2.231 0.966 2.231 2.155v5.696c-2.532 0.791-4.384 3.125-4.384 5.918 0 3.439 2.788 6.227 6.227 6.227s6.227-2.788 6.227-6.227c0-2.432-1.408-4.514-3.441-5.54z"></path>
</svg>
