<!-- Generated by IcoMoon.io -->
<svg version="1.1" xmlns="http://www.w3.org/2000/svg" width="32" height="32" viewBox="0 0 32 32">
<title>discount</title>
<path fill="#758290" d="M11.69 7.665c-2.185-0.228-3.921-1.005-3.936-3.029-0.006-0.678 0.966-1.591 2.635-1.22 1.937 0.42 4.565 2.861 4.57 3.533 0.013 0.678-1.297 0.926-3.268 0.717zM23.080 3.315c1.664-0.388 2.654 0.512 2.658 1.184 0.015 2.031-1.719 2.831-3.891 3.091-1.978 0.239-3.281 0.009-3.287-0.668-0.004-0.681 2.588-3.151 4.521-3.607zM13.994 8.375c0.719 0.030 1.239-0.030 1.51-0.305 0.201 0.51 0.687 0.41 1.265 0.405s1.069 0.087 1.263-0.422c0.273 0.271 0.804 0.322 1.525 0.282l0.047 6.754 9.737-0.070-0.030-4.032c-0.013-1.63-1.35-2.95-2.976-2.938l-4.525 0.032c0.134-0.017 0.279-0.030 0.42-0.051 2.94-0.35 5.278-1.431 5.257-4.171-0.006-0.915-1.333-2.125-3.586-1.598-2.231 0.518-5.101 3.027-5.888 4.324-0.205-0.493-0.7-0.832-1.263-0.828s-1.041 0.35-1.244 0.845c-0.811-1.284-3.718-3.75-5.956-4.237-2.253-0.493-3.567 0.734-3.561 1.651 0.019 2.737 2.372 3.782 5.316 4.092 0.149 0.019 0.286 0.032 0.429 0.045l-4.533 0.034c-1.623 0.011-2.946 1.353-2.933 2.982l0.028 4.030 9.747-0.070-0.049-6.754z"></path>
<path fill="#758290" d="M19.615 16.482l0.058 7.906-2.816-4.149-2.75 4.19-0.055-7.906-9.052 0.066 0.085 11.793c0.011 1.53 1.278 2.775 2.805 2.765l18.086-0.132c1.536-0.009 2.78-1.274 2.767-2.803l-0.085-11.795-9.043 0.066z"></path>
</svg>
