<!-- Generated by IcoMoon.io -->
<svg version="1.1" xmlns="http://www.w3.org/2000/svg" width="32" height="32" viewBox="0 0 32 32">
<title>fork</title>
<path fill="#758290" d="M31.499 29.094c0.668 0.668 0.668 1.737 0 2.405s-1.737 0.668-2.405 0l-13.094-13.094-13.094 13.094c-0.668 0.668-1.737 0.668-2.405 0s-0.668-1.737 0-2.405l13.094-13.094-13.094-13.094c-0.668-0.668-0.668-1.737 0-2.405s1.737-0.668 2.405 0l13.094 13.094 13.094-13.094c0.668-0.668 1.737-0.668 2.405 0s0.668 1.737 0 2.405l-13.094 13.094 13.094 13.094z"></path>
</svg>
