<?xml version="1.0" encoding="UTF-8"?>
<svg width="15px" height="15px" viewBox="0 0 15 15" version="1.1" xmlns="http://www.w3.org/2000/svg" xmlns:xlink="http://www.w3.org/1999/xlink">
    <!-- Generator: Sketch 49.3 (51167) - http://www.bohemiancoding.com/sketch -->
    <title>商城管理</title>
    <desc>Created with Sketch.</desc>
    <defs></defs>
    <g id="icon_list" stroke="none" stroke-width="1" fill="none" fill-rule="evenodd">
        <g id="icon" transform="translate(-97.000000, -75.000000)" fill="#758290">
            <g id="商城管理" transform="translate(97.000000, 75.000000)">
                <path d="M11.6,11.966 L2.902,11.966 L2.894,11.966 C2.823,11.962 2.769,11.9 2.774,11.829 L3.225,4.583 C3.229,4.515 3.286,4.462 3.353,4.462 L4.128,4.462 L4.128,4.922 C4.128,5.145 4.308,5.326 4.531,5.326 C4.753,5.326 4.934,5.145 4.934,4.922 L4.932,4.462 L9.568,4.462 L9.568,4.922 C9.568,5.145 9.749,5.326 9.971,5.326 C10.194,5.326 10.374,5.145 10.374,4.922 L10.374,4.462 L11.149,4.462 C11.217,4.462 11.273,4.515 11.278,4.583 L11.729,11.829 L11.729,11.837 C11.729,11.908 11.671,11.966 11.6,11.966 Z M4.926,2.958 C4.934,2.927 4.98,2.825 5.18,2.809 L9.323,2.804 C9.407,2.817 9.549,2.872 9.568,2.876 L9.568,3.685 L4.929,3.685 L4.926,2.958 Z M12.049,4.535 C12.019,4.057 11.625,3.685 11.149,3.685 L10.374,3.685 L10.374,2.876 C10.374,2.372 9.907,2.075 9.384,2 L5.149,2.001 C4.437,2.056 4.173,2.556 4.128,2.876 L4.128,3.685 L3.353,3.685 C2.877,3.685 2.483,4.057 2.453,4.535 L2.002,11.78 C2.001,11.799 2,11.818 2,11.837 C2,12.337 2.404,12.742 2.902,12.742 L11.6,12.742 C11.619,12.742 11.638,12.742 11.656,12.741 C12.153,12.71 12.532,12.279 12.5,11.78 L12.049,4.535 Z M9.7216,8.7218 C9.5096,8.6528 9.2826,8.7708 9.2146,8.9838 C9.0136,9.6098 8.4506,10.3468 7.1306,10.3268 C5.7796,10.3028 5.2806,8.9858 5.2606,8.9298 C5.1836,8.7208 4.9536,8.6118 4.7436,8.6888 C4.5356,8.7648 4.4276,8.9948 4.5026,9.2048 C4.5306,9.2828 5.2026,11.1018 7.1166,11.1368 C7.1416,11.1368 7.1686,11.1368 7.1936,11.1368 C9.1586,11.1368 9.7976,9.8078 9.9816,9.2308 C10.0506,9.0178 9.9336,8.7898 9.7216,8.7218"></path>
            </g>
        </g>
    </g>
</svg>