<!-- Generated by IcoMoon.io -->
<svg version="1.1" xmlns="http://www.w3.org/2000/svg" width="32" height="32" viewBox="0 0 32 32">
<title>selected</title>
<path fill="#758290" d="M25.176 11.85l-10.347 10.347c-0.566 0.565-1.482 0.565-2.048 0l-5.959-5.958c-0.544-0.569-0.534-1.469 0.023-2.025s1.456-0.567 2.025-0.023l4.935 4.935 9.323-9.324c0.569-0.544 1.468-0.534 2.025 0.023s0.567 1.456 0.023 2.025l-0-0z"></path>
</svg>
