<!-- Generated by IcoMoon.io -->
<svg version="1.1" xmlns="http://www.w3.org/2000/svg" width="32" height="32" viewBox="0 0 32 32">
<title>tenant-add</title>
<path fill="#758290" d="M10.316 20.393c0-0.777 0.659-1.406 1.474-1.406 0.813 0 1.472 0.629 1.472 1.406v1.406c0.004 0.503-0.277 0.969-0.734 1.22-0.457 0.254-1.020 0.254-1.478 0-0.457-0.252-0.736-0.717-0.734-1.22v-1.406zM11.79 17.583c-4.068 0-7.369-3.46-7.369-7.725 0-4.267 3.3-7.725 7.369-7.725s7.369 3.458 7.369 7.725c0 4.265-3.3 7.725-7.369 7.725zM22.487 25.318c0.275 0 0.501 0.224 0.501 0.501s-0.226 0.501-0.501 0.501h-1.506v1.506c0 0.277-0.226 0.501-0.501 0.501-0.277 0-0.503-0.224-0.503-0.501v-1.506h-1.506c-0.277 0-0.503-0.224-0.503-0.501 0-0.279 0.226-0.503 0.503-0.503h1.506v-1.506c0-0.275 0.226-0.501 0.503-0.501 0.275 0 0.501 0.224 0.501 0.501v1.508h1.506zM15.443 25.818c0 1.916 1.082 3.563 2.658 4.414h-15.153c-1.628 0-2.948-1.259-2.948-2.812v-2.112c0-3.279 3.119-6.080 7.516-7.202v0.002c-0.096 0.275-0.147 0.572-0.147 0.879v2.81c0 0.745 0.311 1.459 0.864 1.986s1.301 0.823 2.084 0.823h2.946c0.783 0 1.532-0.297 2.084-0.823s0.864-1.242 0.864-1.986v-2.81c0-0.307-0.053-0.604-0.147-0.881 2.187 0.557 4.058 1.534 5.385 2.775-0.316-0.062-0.638-0.098-0.969-0.098-2.782 0-5.037 2.253-5.037 5.035zM29.271 21.022c1.135 1.449 1.143 3.26 1.143 5.020 0 0.371-0.154 0.727-0.431 0.992-0.275 0.262-0.651 0.412-1.041 0.412h-2.716c0 0 0.309-2.091 0.158-3.424-0.179-1.577-1.66-3.738-3.313-5.007-0.604-0.465-1.261-0.862-1.943-1.201-0.271-0.134-2.118-1.094-2.33-0.9 1.702-1.545 2.775-3.817 2.775-6.351 0-1.53-0.393-2.963-1.075-4.201 3.068 0.22 5.495 2.961 5.495 6.308 0 2.185-1.033 4.111-2.605 5.246 0.275-0.198 1.871 0.518 2.18 0.636 1.385 0.529 2.769 1.284 3.701 2.47z"></path>
</svg>
